[gd_scene load_steps=5 format=3 uid="uid://d3qhbxkjqiwo2"]

[ext_resource type="PackedScene" uid="uid://devcefa5ovfxj" path="res://input/unit_commands/unit_move_command.tscn" id="1_p6o0v"]
[ext_resource type="PackedScene" uid="uid://cwh2eb5hud7ca" path="res://input/unit_selection/unit_selection.tscn" id="2_q5whp"]
[ext_resource type="Script" path="res://input/camera_controls.gd" id="3_lbtg2"]
[ext_resource type="PackedScene" uid="uid://dso33f6n4pbxj" path="res://input/hud/hud.tscn" id="4_72mkc"]

[node name="Input" type="Node2D"]

[node name="UnitMoveCommand" parent="." instance=ExtResource("1_p6o0v")]

[node name="UnitSelection" parent="." instance=ExtResource("2_q5whp")]

[node name="Camera" type="Camera2D" parent="."]
position = Vector2(592, 171)
script = ExtResource("3_lbtg2")

[node name="HUD" parent="." instance=ExtResource("4_72mkc")]

[connection signal="unit_selection_changed" from="UnitSelection" to="UnitMoveCommand" method="unit_selection_changed"]
